{
  "editor": [
    {
      "icon": "",
      "key": "preGameScreen",
      "header": "Pre Game Setting",
      "disabled": false,
      "fields": [
        {
          "key": "bg_image",
          "header": "Background Image",
          "type": "image"
        },
        {
          "key": "game_logo",
          "header": "Game Logo",
          "type": "image"
        },
        {
          "key": "timer",
          "header": "Time of game in second",
          "type": "text"
        }
      ]
    },
    {
      "icon": "",
      "key": "settings",
      "header": "Game Setting",
      "disabled": false,
      "fields": [
        {
          "key": "enemy_1",
          "header": "Enemy 1",
          "type": "image"
        },
        {
          "key": "enemy_2",
          "header": "Enemy 2",
          "type": "image"
        },
        {
          "key": "enemy_3",
          "header": "Enemy 3",
          "type": "image"
        },
        {
          "key": "shooter_1",
          "header": "Shooter 1",
          "type": "image"
        },
        {
          "key": "shooter_2",
          "header": "Shooter 2",
          "type": "image"
        }
      ]
    },
    {
      "icon": "",
      "key": "postGameScreen",
      "header": "Post Game Setting",
      "disabled": false,
      "fields": []
    }
  ],
  "config": {
    "preGameScreen":{
      "bg_image": "./../assets/cave.jpg",
      "game_logo": "./../assets/title/title@3x.png",
      "timer": "30"
    },
    "settings": {     
      "enemy_1": "./../assets/enemy-1.png",
      "enemy_2": "./../assets/enemy-2.png",
      "enemy_3": "./../assets/enemy-3.png",
      "shooter_1": "./../assets/cannon.png",
      "shooter_2": "./../assets/double-bullet-shooter.png"
    },
    "postGameScreen":{
    }
  }
}